<?xml version="1.0"?>
<robot xmlns:xacro="http://www.ros.org/wiki/xacro">

    <!-- Center of buoyancy -->
    <xacro:property name="matrice_cob" value="0 0 0"/>

    <!-- Vehicle's actual volume (Gazebo cannot compute the volume out of the mesh) -->
    <!-- <xacro:property name="matrice_volume" value=""/> -->
    <xacro:property name="matrice_volume" value="0.112"/>

    <!-- Describing the dimensions of the vehicle's bounding box -->
    <xacro:property name="matrice_length" value="0.81"/> <!-- 0.81 / 0.227-->
    <xacro:property name="matrice_width"  value="0.81"/>
    <xacro:property name="matrice_height" value="0.227"/>
    <xacro:property name="mass" value="2.355"/>
    <xacro:property name="rho" value="1028"/>
    <xacro:property name="pi" value="3.14159265"/>
    <xacro:property name="radius" value="0.4"/>

    <xacro:macro name="matrice_hydro_model" params="namespace">
      <!-- List of hydrodynamic models this robot's links -->
      <link name="${namespace}/base_link">
        <!-- This flag will make the link neutrally buoyant -->
        <neutrally_buoyant>1</neutrally_buoyant>

        <!-- Link's volume -->
        <volume>${matrice_volume}</volume>

        <!-- Link's bounding box, it is used to recalculate the immersed
        volume when close to the surface.
        This is a workaround the invalid bounding box given by Gazebo-->
        <box>
          <width>${matrice_width}</width>
          <length>${matrice_length}</length>
          <height>${matrice_height}</height>
        </box>

        <!-- Center of buoyancy -->
        <center_of_buoyancy>${matrice_cob}</center_of_buoyancy>

        <!-- 2) This computes the added-mass and damping parameters for a sphere
        in the fluid with the given radius -->

        <hydrodynamic_model>
          <type>box</type>
	  <width>${matrice_width}</width>
          <length>${matrice_length}</length>
          <height>${matrice_height}</height>
        </hydrodynamic_model>



      </link>
    </xacro:macro>

</robot>
