<?xml version="1.0" encoding="utf-8"?>
<COLLADA xmlns="http://www.collada.org/2005/11/COLLADASchema" version="1.4.1" xmlns:xsi="http://www.w3.org/2001/XMLSchema-instance">
  <asset>
    <contributor>
      <author>Blender User</author>
      <authoring_tool>Blender 2.81.16 commit date:2019-12-04, commit time:11:32, hash:f1aa4d18d49d</authoring_tool>
    </contributor>
    <created>2020-11-21T00:40:03</created>
    <modified>2020-11-21T00:40:03</modified>
    <unit name="meter" meter="1"/>
    <up_axis>Z_UP</up_axis>
  </asset>
  <library_images/>
  <library_geometries>
    <geometry id="shape0_000-mesh" name="shape0.000">
      <mesh>
        <source id="shape0_000-mesh-positions">
          <float_array id="shape0_000-mesh-positions-array" count="459">-0.08357137 -0.140031 -0.07364559 -0.04984247 -0.421246 -0.05464208 -0.113511 -0.274039 -0.135752 -0.114702 -0.415125 -0.12953 -0.0746712 -0.825968 -0.01752549 -0.006384253 -0.650908 -0.007860422 -0.08786529 -0.651074 -0.06115299 0.02411288 -0.533313 -0.009510278 -0.004485607 -0.501709 -0.01888436 0.02989464 -0.965824 0.003342509 0.056674 -0.330572 -0.009868323 -0.04309499 -0.154126 -0.04547894 -0.001135528 -0.221271 -0.02289503 -0.0281136 -0.982709 0.00578624 0.01791995 -0.804511 0.004148066 0.0537911 -0.643416 -0.009041249 0.01270467 -0.08871167 -0.01068174 -0.05569106 0.06617146 -0.009633123 -0.001740515 0.08183485 -0.008683502 0.05587345 0.0659486 -0.009712874 0.113541 0.274172 -0.135785 0.05002099 0.443601 -0.05284029 0.114702 0.415126 -0.12953 0.08786499 0.651077 -0.06115216 0.07467055 0.825975 -0.01752436 0.07500165 0.975039 -0.009344518 -0.02411288 0.533313 -0.009510278 0.00438714 0.503608 -0.01880586 -0.02989256 0.965824 0.003343582 -0.0537911 0.643416 -0.009041249 -0.01791977 0.804512 0.004148066 -0.05746173 0.180075 -0.01048702 0.03759574 0.2035869 -0.04804193 -4.65212e-4 0.233604 -0.02185988 0.006384253 0.650907 -0.007860422 0.02811557 0.982719 0.005785882 0.005636513 0.123583 -0.140777 -0.01352626 0.104834 -0.06578278 -0.008937716 -0.12151 -0.03823006 0.01669639 -0.104368 -0.03856396 -0.01139456 -0.103689 -0.07061046 -0.02350908 -0.001719594 -0.126579 -0.02270388 0.852975 0.003909945 0.08989727 0.239197 -0.104766 0.06469625 0.513252 -0.06428438 0.01306504 0.698342 -0.004997551 -0.05181485 0.839194 -0.007662892 -0.01441603 0.525621 -0.01091027 -0.00491935 0.2193599 -0.01960456 0.02581328 0.234838 -0.03882688 0.03097367 0.441406 -0.03693485 0.02315187 -0.1180109 -0.01180326 -0.02513217 -0.102274 -0.01690834 0.02124375 -0.116969 -0.14857 0.005702674 -0.134397 -0.140058 -0.007970929 -0.08548545 -0.05241125 0.01413863 -0.0882616 -0.01229757 0.004915118 0.08468848 -0.03843724 0.01923799 0.127822 -0.02761834 -0.008259117 0.02590775 -0.04809033 0.02114057 0.01493579 -0.14038 0.01596206 -0.02784717 -0.009969472 0.01530045 0.07616269 -0.009242415 -0.004152715 -0.02592694 -0.04324597 -0.002245545 -0.01577097 -0.04894036 0.002544999 0.01094615 -0.03091675 -0.02556514 0.119737 -0.143772 -0.01976299 -0.118895 -0.152086 -0.0537343 -0.160254 -0.05635976 -0.07500165 -0.975039 -0.009344518 -0.04071527 -0.989476 0.001363337 0.02274048 -0.85053 0.003789067 0.05181485 -0.839194 -0.007662892 -0.02601402 -0.279747 -0.03863978 -0.02280747 -0.525923 -0.02692067 0.0238769 -0.383433 -0.01485502 -0.006653845 -0.855493 0.005400896 -0.02521896 -9.5966e-4 -0.009703278 0.02526098 0.104341 -0.1522189 -0.00446552 0.0936833 -0.146062 -0.004475653 -0.09316939 -0.142415 0.01738977 -0.08933287 -0.135902 -0.05395716 -0.701021 -0.02630597 -0.104818 -0.545401 -0.0968858 -0.08082765 -0.780351 -0.02766716 -0.07623398 -0.898608 -0.01278042 0.05355197 -0.950918 -0.007589936 0.01210063 -0.591485 -0.007279217 0.05800122 -0.596443 -0.009949684 -0.09369957 -0.203884 -0.08886867 -0.09207588 -0.704367 -0.03806614 -0.07087057 -0.465201 -0.07459056 -0.124309 -0.39154 -0.1281329 0.05621474 -0.618315 3.61391e-4 0.05580097 -0.1858699 -3.02646e-4 0.03031253 -0.955269 0.01302218 0.05731767 -0.951992 -4.06283e-5 0.05838209 -0.07186806 -2.54228e-4 -0.05585819 -0.06658595 -0.009723842 -0.118004 -0.364506 -0.138633 -0.108654 -0.285812 -0.127115 -0.105771 -0.219694 -0.119224 0.0559017 -0.05887264 -0.009658515 0.009496212 -0.07469969 4.02485e-4 -0.05847787 -0.06418055 -4.29309e-6 0.0762335 0.898779 -0.01276886 0.118975 0.372814 -0.139636 0.04087775 0.989495 0.00131762 -0.05334836 0.950983 -0.00752902 0.08204609 0.76524 -0.03049999 0.083117 0.138354 -0.0731762 0.08804827 0.743603 -0.02757126 -0.05731767 0.951992 -4.06283e-5 -0.02968448 0.956045 0.01264089 0.07118469 0.139598 -0.05544292 0.05826514 0.07324856 -0.00292778 0.104825 0.545342 -0.09690028 -0.05840498 0.254076 -0.009581387 -0.05636346 0.558111 -0.009766757 0.01019966 0.09296905 -8.44993e-4 -9.75602e-4 -0.140125 -0.02252703 -0.004225373 -0.205437 -0.02482235 -0.006746888 0.07961887 -0.06490367 -0.008473753 0.07539319 -0.008508503 0.01403898 0.02056413 -0.01045829 -0.01035892 0.1718389 -0.005759954 -0.05781835 0.06625831 -1.51025e-4 -0.04920077 0.410316 -7.90412e-4 0.03791308 1.00303 0.01297837 0.08138436 0.885023 -0.00491482 0.118766 0.442389 -0.1158789 0.06292277 0.518668 -0.04692286 0.126334 0.293997 -0.136557 0.05210298 0.2456899 -0.04788082 0.01034706 0.4132 -0.01469385 -0.05018508 0.589529 9.47399e-4 0.02894812 0.672397 -0.004935443 -0.02322357 0.568443 0.002280354 -0.006842434 0.801128 0.01595824 -0.02066516 0.127101 -0.009004652 -0.005914211 -0.486521 -0.008993983 -0.03800904 -1.00287 0.01289409 -0.1222079 -0.283356 -0.130685 -0.03316646 -0.121489 -0.02041774 -0.05146753 -0.26177 -0.04790675 -0.06078177 -0.534174 -0.04289513 0.005785644 -0.220441 -0.0104773 0.04920077 -0.410316 -7.90412e-4 -0.003093421 -0.647823 0.003426969 -0.08106648 -0.84862 -0.007434785 0.003467977 -0.808683 0.01592606 0.01608777 0.104192 -0.0474177 -0.008073508 0.122668 -0.03704237</float_array>
          <technique_common>
            <accessor source="#shape0_000-mesh-positions-array" count="153" stride="3">
              <param name="X" type="float"/>
              <param name="Y" type="float"/>
              <param name="Z" type="float"/>
            </accessor>
          </technique_common>
        </source>
        <source id="shape0_000-mesh-normals">
          <float_array id="shape0_000-mesh-normals-array" count="900">-0.5063765 -0.02654153 0.861904 -0.2561641 0.0544548 0.9650983 -0.02502512 0.07398027 0.9969457 0.04262018 -0.001825392 0.9990898 -0.787692 -0.001235783 0.616068 -0.6074838 -0.2182455 0.7637619 -0.4951819 -0.01728796 0.8686174 -0.5394256 0.06887173 0.8392121 -0.7540054 0.03529149 0.6559194 -0.747455 0.1050763 0.6559498 -0.5400906 0.1651149 0.825251 -0.277181 0.05326271 0.9593404 -0.1903475 0.01631206 0.9815813 0.1555893 0.04614233 0.9867436 -0.2664311 0.04449033 0.9628267 0.348228 0.02116984 0.9371709 0.3320512 0.003289043 0.9432557 -0.005797564 0.00269705 0.9999796 -0.02310389 -8.37673e-4 0.9997327 -0.3160496 -0.05427086 0.9471892 -0.5984384 0.0186038 0.8009528 -0.5462439 0.06671649 0.8349649 -0.1631698 0.05120897 0.9852681 -0.2840574 0.05796533 0.9570536 -0.348081 0.03593218 0.9367757 0.001978754 -0.03713446 0.9993084 -0.6139603 -0.3735303 0.6953617 -0.113013 -0.3897738 0.9139499 7.15715e-4 4.3566e-4 0.9999997 -5.37428e-4 -6.82669e-4 0.9999997 0.1816257 0.6086465 0.772374 5.8853e-4 -0.0625351 0.9980427 0.5683017 0.08108639 0.8188152 0.2578555 -0.05447071 0.9646468 0.02246075 -0.07438743 0.9969765 -0.04259479 0.00182116 0.9990909 0.6646188 0.1848479 0.7239566 0.5357985 -0.06979107 0.8414567 0.7664235 -0.0268464 0.6417745 0.7574726 -0.03516882 0.6519191 0.7397351 -0.108323 0.6641222 0.5400923 -0.1651114 0.8252506 0.2771886 -0.05325907 0.9593383 -0.1555884 -0.0461421 0.9867438 -0.3482277 -0.02117198 0.9371709 -0.3320494 -0.003289043 0.9432563 0.004106998 -0.003152787 0.9999866 0.2822211 -0.02929568 0.958902 0.2090207 -0.01481628 0.977799 -0.01968497 0.007188975 0.9997805 0.5994703 0.06422793 0.7978159 0.1176788 0.08491069 0.9894149 0.5600343 -0.0124315 0.8283761 0.5810083 -0.01964485 0.8136606 0.5462598 -0.06618732 0.8349968 0.1631756 -0.05120754 0.9852673 0.2840468 -0.05796349 0.9570569 0.3472959 -0.03620338 0.9370566 -0.8846108 0.4524513 -0.1129231 0.6290687 0.7721279 0.08995097 -0.4929592 0.7458963 0.4479174 -0.126632 0.9831503 0.131833 0.6706981 0.739538 -0.05698782 0.5530959 -0.8248124 0.1173442 -0.8001537 -0.5490446 -0.2414627 -0.8902631 0.3382097 0.3050342 -0.7668225 0.4173973 0.4876095 -0.9130281 -0.1026103 0.3947796 -0.9022591 -0.3207325 0.2881999 0.7146341 0.6840212 0.1463325 0.9002428 0.401846 0.1675791 -0.9646868 -0.004689395 0.263358 0.5079126 0.0588032 0.8593993 0.7158577 0.0290845 0.6976402 -0.02455335 0.003803133 0.9996913 0.9722999 0.228786 -0.04785305 0.6830108 -0.04302614 0.72914 0.4292867 -0.1004912 0.8975603 0.7178508 -0.03668409 0.6952299 0.6592683 -0.02335315 0.7515451 0.7970222 -0.0158897 0.6037411 0.4667906 -0.1490126 0.8717235 0.2831369 -0.03845775 0.9583082 0.1091679 -0.03197801 0.9935088 0.5329799 -0.007492363 0.8460949 0.1698919 -0.02270025 0.9852012 -0.3618363 -0.01837176 0.9320606 -0.4169923 -0.006808638 0.9088846 -0.00795263 -0.04542589 0.9989361 0.02757883 4.24281e-4 0.9996196 -0.2921761 0.1582311 0.943184 0.3648043 -0.08976799 0.9267467 0.4693858 -0.01981157 0.8827709 0.05969786 -0.04363739 0.9972623 0.2651368 -0.04621762 0.9631025 -0.6792334 0.7337677 0.01506638 -0.9566903 -0.2902258 -0.02264779 -0.9895223 -0.1438192 0.01270979 0.4942468 0.8664735 0.07031255 0.7976657 -0.5939401 0.1047121 -0.133641 -0.9910169 0.005073845 -0.7487989 0.6627181 -0.01024991 -0.03680557 -0.03737157 0.9986235 -0.4100441 -0.5058202 0.7589532 -0.9349219 0.3377492 -0.1088415 -0.9019963 0.2040872 0.3804616 0.8555973 -0.5173984 0.01588141 -0.2751796 -0.9610251 0.02659159 0.768948 0.6392721 0.007093012 0.1636956 0.6147022 0.7715862 0.5594848 0.2132797 0.8009298 0.4995402 0.2562834 0.8275135 -0.007448494 4.338e-4 0.9999722 -0.02757185 0.008997678 0.9995794 0.006053805 -0.02200049 0.9997397 0.1493035 -0.07001501 0.9863095 7.94609e-4 -6.84346e-4 0.9999995 -0.02168452 -0.01088774 0.9997057 -0.997797 -0.04016834 -0.05279958 0.04273194 -0.9976818 0.052962 0.847817 0.5262418 0.06539189 -0.506047 0.8605439 0.05814528 -0.987651 0.04385745 0.1504063 0.9801895 0.1975201 0.01464658 0.5265763 0.003674566 -0.8501201 -0.4626727 -0.01931184 0.8863188 -0.3972002 -0.01163601 0.9176583 -0.7268369 -0.06725299 0.6835095 -0.5988594 -0.2271292 0.7679712 -0.7474563 -0.04649734 0.6626817 -0.6949573 0.09606361 0.7126053 0.06242209 -0.04591333 0.9969932 -0.3523859 0.1033998 0.9301252 -0.2830727 0.03851735 0.9583247 0.3600856 0.01873129 0.9327313 0.415812 0.007058978 0.9094233 0.0628851 0.04518187 0.9969975 0.06158465 0.03283864 0.9975616 -0.06160557 -0.002082467 0.9980984 -0.5368996 5.56207e-4 0.8436459 -0.6436645 -0.1873664 0.7420175 -0.7315922 0.04508471 0.6802502 -0.68748 0.02559441 0.7257522 -0.4072696 0.0562458 0.9115744 -0.3616938 0.03963029 0.9314543 0.04719275 0.04457551 0.9978907 -0.6235631 0.1136461 0.7734686 -0.3837399 0.07149875 0.9206691 -0.440093 0.1106176 0.8911127 -0.290619 0.06649011 0.954526 -0.2765106 0.04136204 0.9601204 0.9401353 -0.2103797 0.2681156 0.7174009 0.6937348 0.06378018 -0.6634044 -0.7405017 0.1074798 0.3426043 -0.9390428 0.02865284 -0.3049778 0.9397788 0.1542875 0.7761549 0.6172507 0.1287844 -0.7771333 -0.6293362 -2.96672e-4 -0.1392043 0.9684816 0.2065562 0.1201547 -0.9924949 0.02273684 -0.09725219 0.5054606 0.8573515 0.03071373 -0.9831268 0.1803287 -0.8583915 0.5129393 -0.007564902 0.8438755 -0.5308259 0.07809013 0.1461176 -0.9851846 0.08978331 -0.1873685 -0.4307872 0.8827885 0.9003373 0.01288384 0.4350021 0.9654548 -0.001393437 0.2605668 -0.7999206 0.007214426 0.6000626 -0.6095422 -0.2588462 0.7493044 -0.5681318 0.1786528 0.8033116 0.535939 0.03845155 -0.8433806 0.8829132 0.03528404 0.4682086 0.04131174 0.6566502 0.7530631 -0.1952742 0.07210493 0.9780945 0.9919517 0.06198018 -0.1104099 -0.04446184 -0.01160705 0.9989437 -0.149122 -0.001117944 0.9888182 0.3666765 -5.8036e-4 0.9303484 -0.9682474 -0.003916919 0.2499633 0.2089487 0.003887355 0.977919 0.9226974 0.3497741 0.162135 0.06109297 0.3587615 -0.931428 0.9420785 -0.193978 -0.2736069 0.4543961 0.3475612 -0.8201984 0.944889 0.1775233 0.2750828 0.7106944 0.1976109 0.6751767 -0.2714306 -0.107734 0.9564094 0.9425652 -0.07173138 -0.3262295 0.9387664 -0.06839507 -0.3376979 0.8627415 -0.004827916 0.5056222 0.6639583 -0.1429105 -0.7339863 0.5725544 -0.1282539 -0.8097731 -0.6568167 0.06928437 0.7508605 0.9486171 0.1738628 0.2643813 -0.01057529 0.01786911 -0.9997844 -0.3992512 0.6282114 -0.6677941 -0.3950145 0.8613058 0.3195556 0.1212431 -0.001408159 -0.9926218 -0.8939526 0.01420253 0.4479367 -0.4354136 -3.54515e-4 -0.9002305 -0.04806947 -0.007151961 -0.9988185 0.0827834 -0.001451015 -0.9965666 -0.01347464 7.29754e-4 -0.999909 -0.9996663 0.001202702 -0.0258038 -0.3053187 1.38148e-4 -0.9522503 -0.2154753 -0.02011984 -0.976302 0.9682728 0.06788706 0.2404982 -0.3042855 0.4057177 0.8618605 -0.2706835 -0.1024366 0.9572029 -0.3880709 0.5550183 0.7357689 -0.05083346 -0.01843744 -0.998537 -0.0130043 -0.007384717 -0.9998882 0.004829585 -0.007460057 -0.9999606 -0.00977987 -0.001075387 -0.9999516 -0.8096411 -0.2591571 -0.5266107 -0.942768 0.3324819 -0.02538377 -0.9430975 -6.86096e-5 0.3325166 -0.965543 0.00401622 0.2602126 0.3947328 0.2503857 0.884021 -0.9098536 -0.2034476 0.3616291 0.6904551 -0.1426194 0.7091766 -0.5577557 -0.0802021 -0.8261212 -0.863788 -0.03651851 0.5025303 -0.04353904 -0.6575448 0.7521564 0.190346 -0.07005667 0.9792143 -0.9969645 -0.06373286 -0.04472166 0.1857044 0.002411603 0.9826028 -0.369018 -9.84967e-4 0.9294218 -0.2057739 -0.003994703 0.9785915 -0.2659907 -0.5658872 -0.7803978 -0.7405127 -0.0856772 -0.6665586 -0.8295642 0.002950012 -0.5584037 -0.6893559 0.138181 -0.711122 0.6539683 -0.05059218 0.7548285 -0.9402032 -0.180556 0.2888212 0.01802289 -0.01874941 -0.9996618 0.3989385 -0.6273559 -0.6687844 0.3937092 -0.8600279 0.3245688 -0.08073544 1.69869e-4 -0.9967356 0.01292079 -0.05883616 -0.9981841 0.6587743 0.01091283 -0.7522616 0.9973255 -5.54652e-4 -0.07308655 0.9405337 -0.006108283 0.3396456 0.4163984 0.005715668 -0.9091643 -0.9008107 -0.09545332 0.4235903 0.4339346 -0.2899646 0.8530073 -0.9697026 -0.08154362 0.2302775 0.5787023 0.08571505 0.811022 -0.7816782 -0.1344043 0.6090277 0.3813751 -0.554002 0.7400235 0.8829835 -0.009449541 0.469309 0.9863836 -0.00517261 -0.1643801 -0.8761652 -0.0179544 0.4816763 -0.848918 0.1052053 0.5179479 -0.9154831 0.1434489 0.3759163 0.4220476 0.03206276 0.9060066 0.9147678 -0.1180966 0.3863328 0.833041 -0.03853374 0.5518677 0.9993937 -0.01900404 0.02917826 -0.8556343 0.005879938 0.5175477 -0.9407809 0.01393681 0.3387287 -0.639743 -0.06044989 -0.7662081 -0.4116791 -0.1631845 -0.8965999 -0.04422384 -0.03316438 -0.998471 -0.2275459 0.003889679 -0.9737596 0.2535564 0.01667487 -0.9671769 -0.2946025 0.07274502 -0.9528471 -0.2711191 0.04590851 -0.9614504 -0.4752978 0.1172989 -0.8719707 -0.4860838 0.1286612 -0.8643894 -0.7456179 0.05452001 -0.6641397 -0.7751409 0.03293776 -0.6309294 -0.5743263 0.01897758 -0.8184065 -0.5584998 0.02504652 -0.8291265 -0.229603 0.05658805 -0.971638 -0.241198 0.0537905 -0.9689841 0.05717247 0.009994566 -0.9983144 -0.6250199 0.07411026 -0.7770829 0.08994317 0.05213248 -0.9945816 -0.2839806 0.07617723 -0.9557992 0.3848472 0.05896276 -0.921095 0.1523658 0.06971669 -0.9858623 0.201873 -0.003807902 -0.9794043 -0.01273041 -0.07797795 -0.9968739 0.293033 -0.06218075 -0.9540782 0.2863019 -0.04620957 -0.9570245 0.543255 -0.02856516 -0.8390817 0.7768073 -0.02992576 -0.629027 0.7645412 -0.03797984 -0.643455 0.7476148 0.07879757 -0.6594417 0.4895237 0.1057479 -0.8655542 0.7237526 0.0405671 -0.6888661 0.5641824 -0.03446775 -0.8249304 0.1644048 -0.01272743 -0.9863109 0.2412862 -0.07031321 -0.9679034 0.5583766 -0.05398172 -0.8278294 0.4542628 -0.1287141 -0.8815204 -0.09945893 -0.9870479 0.1258746 -0.3519551 -0.7639594 0.540827</float_array>
          <technique_common>
            <accessor source="#shape0_000-mesh-normals-array" count="300" stride="3">
              <param name="X" type="float"/>
              <param name="Y" type="float"/>
              <param name="Z" type="float"/>
            </accessor>
          </technique_common>
        </source>
        <vertices id="shape0_000-mesh-vertices">
          <input semantic="POSITION" source="#shape0_000-mesh-positions"/>
        </vertices>
        <triangles count="300">
          <input semantic="VERTEX" source="#shape0_000-mesh-vertices" offset="0"/>
          <input semantic="NORMAL" source="#shape0_000-mesh-normals" offset="1"/>
          <p>16 0 11 0 12 0 7 1 8 1 14 1 14 2 8 2 5 2 9 3 14 3 13 3 1 4 11 4 2 4 11 5 0 5 2 5 11 6 1 6 12 6 1 7 5 7 8 7 2 8 3 8 1 8 1 9 3 9 6 9 5 10 6 10 4 10 70 11 4 11 69 11 12 12 8 12 10 12 14 13 15 13 7 13 8 14 7 14 10 14 9 15 72 15 14 15 72 16 15 16 14 16 7 17 15 17 10 17 102 18 16 18 10 18 12 19 10 19 16 19 12 20 1 20 8 20 1 21 6 21 5 21 5 22 13 22 14 22 5 23 4 23 13 23 13 24 4 24 70 24 102 25 98 25 16 25 11 26 98 26 0 26 11 27 16 27 98 27 19 28 17 28 102 28 17 29 98 29 102 29 110 30 18 30 19 30 17 31 19 31 18 31 18 32 110 32 32 32 26 33 27 33 30 33 30 34 27 34 34 34 28 35 30 35 35 35 32 36 110 36 20 36 21 37 34 37 27 37 32 38 20 38 21 38 20 39 22 39 21 39 21 40 22 40 23 40 34 41 23 41 24 41 107 42 24 42 25 42 30 43 29 43 26 43 28 44 46 44 30 44 46 45 29 45 30 45 26 46 29 46 31 46 26 47 31 47 27 47 31 48 33 48 27 48 31 49 17 49 18 49 18 50 32 50 33 50 33 51 31 51 18 51 33 52 32 52 21 52 33 53 21 53 27 53 21 54 23 54 34 54 34 55 35 55 30 55 34 56 24 56 35 56 35 57 24 57 107 57 37 58 152 58 36 58 36 59 152 59 151 59 38 60 39 60 40 60 80 61 40 61 39 61 80 62 39 62 53 62 53 63 39 63 38 63 53 64 38 64 40 64 41 65 63 65 64 65 64 66 63 66 61 66 64 67 61 67 65 67 59 68 41 68 65 68 65 69 60 69 59 69 60 70 65 70 61 70 64 71 65 71 41 71 58 72 49 72 48 72 58 73 43 73 49 73 139 74 17 74 123 74 123 75 66 75 139 75 50 76 44 76 45 76 105 77 45 77 109 77 49 78 43 78 44 78 49 79 44 79 50 79 44 80 43 80 106 80 44 81 109 81 45 81 25 82 107 82 105 82 45 83 107 83 42 83 49 84 47 84 48 84 48 85 47 85 117 85 42 86 28 86 46 86 28 87 108 87 46 87 42 88 118 88 47 88 47 89 118 89 117 89 48 90 17 90 139 90 47 91 50 91 45 91 49 92 50 92 47 92 47 93 45 93 42 93 107 94 45 94 105 94 53 95 120 95 51 95 51 96 56 96 81 96 81 97 53 97 51 97 67 98 120 98 54 98 67 99 55 99 52 99 81 100 56 100 55 100 120 101 53 101 54 101 56 102 102 102 61 102 0 103 52 103 98 103 78 104 57 104 58 104 57 105 62 105 58 105 59 106 77 106 41 106 59 107 60 107 124 107 77 108 63 108 41 108 62 109 19 109 110 109 110 110 43 110 62 110 58 111 62 111 43 111 102 112 19 112 61 112 61 113 19 113 124 113 19 114 62 114 124 114 52 115 77 115 98 115 98 116 77 116 17 116 17 117 77 117 123 117 60 118 61 118 124 118 139 119 66 119 58 119 66 120 123 120 122 120 122 121 57 121 78 121 121 122 120 122 67 122 121 123 67 123 52 123 121 124 73 124 120 124 120 125 73 125 75 125 120 126 75 126 51 126 73 127 68 127 100 127 68 128 52 128 0 128 68 129 101 129 100 129 91 130 83 130 82 130 76 131 70 131 71 131 82 132 84 132 85 132 85 133 69 133 70 133 9 134 72 134 71 134 72 135 9 135 86 135 71 136 88 136 87 136 87 137 88 137 75 137 56 138 51 138 102 138 68 139 73 139 121 139 52 140 68 140 121 140 73 141 100 141 91 141 73 142 91 142 74 142 75 143 74 143 87 143 73 144 74 144 75 144 87 145 76 145 71 145 74 146 91 146 82 146 74 147 82 147 87 147 82 148 85 148 87 148 87 149 85 149 76 149 70 150 76 150 85 150 123 151 77 151 59 151 151 152 78 152 36 152 36 153 78 153 58 153 151 154 79 154 78 154 78 155 79 155 122 155 122 156 79 156 66 156 66 157 79 157 37 157 66 158 37 158 36 158 66 159 36 159 58 159 54 160 53 160 67 160 53 161 40 161 67 161 40 162 80 162 67 162 67 163 80 163 55 163 55 164 80 164 81 164 81 165 80 165 53 165 104 166 17 166 117 166 104 167 98 167 17 167 91 168 100 168 99 168 101 169 68 169 0 169 82 170 83 170 84 170 69 171 149 171 141 171 85 172 149 172 69 172 69 173 141 173 70 173 70 174 95 174 71 174 71 175 95 175 9 175 51 176 75 176 102 176 75 177 88 177 102 177 88 178 71 178 72 178 97 179 102 179 88 179 88 180 72 180 86 180 104 181 143 181 98 181 104 182 103 182 143 182 142 183 101 183 89 183 89 184 98 184 143 184 83 185 90 185 84 185 90 186 149 186 84 186 142 187 99 187 100 187 98 188 89 188 0 188 0 189 89 189 101 189 99 190 142 190 92 190 92 191 145 191 90 191 90 192 145 192 149 192 91 193 92 193 83 193 83 194 92 194 90 194 150 195 95 195 141 195 95 196 96 196 9 196 86 197 9 197 96 197 93 198 147 198 94 198 88 199 86 199 96 199 95 200 93 200 96 200 93 201 148 201 147 201 94 202 97 202 93 202 94 203 103 203 97 203 97 204 88 204 96 204 93 205 97 205 96 205 95 206 150 206 93 206 85 207 84 207 149 207 92 208 91 208 99 208 100 209 101 209 142 209 141 210 95 210 70 210 115 211 97 211 119 211 119 212 97 212 103 212 119 213 103 213 104 213 119 214 104 214 126 214 115 215 114 215 110 215 115 216 110 216 19 216 19 217 102 217 115 217 102 218 97 218 115 218 110 219 132 219 43 219 111 220 109 220 116 220 109 221 44 221 116 221 25 222 129 222 128 222 105 223 129 223 25 223 25 224 128 224 107 224 107 225 113 225 42 225 42 226 113 226 28 226 17 227 48 227 117 227 46 228 118 228 42 228 118 229 46 229 108 229 119 230 114 230 115 230 132 231 114 231 133 231 110 232 114 232 132 232 111 233 130 233 131 233 44 234 130 234 116 234 116 235 130 235 111 235 138 236 113 236 128 236 113 237 112 237 28 237 108 238 28 238 112 238 112 239 127 239 126 239 126 240 125 240 119 240 112 241 135 241 127 241 126 242 117 242 112 242 117 243 118 243 112 243 113 244 135 244 112 244 105 245 109 245 129 245 130 246 44 246 106 246 130 247 106 247 132 247 106 248 43 248 132 248 109 249 111 249 129 249 128 250 113 250 107 250 112 251 118 251 108 251 117 252 126 252 104 252 55 253 56 253 63 253 124 254 57 254 59 254 59 255 57 255 122 255 139 256 58 256 48 256 55 257 63 257 52 257 63 258 77 258 52 258 122 259 123 259 59 259 63 260 56 260 61 260 57 261 124 261 62 261 114 262 119 262 133 262 133 263 119 263 125 263 125 264 126 264 134 264 134 265 126 265 127 265 138 266 135 266 113 266 136 267 138 267 129 267 128 268 129 268 138 268 129 269 111 269 136 269 111 270 131 270 136 270 131 271 130 271 132 271 131 272 132 272 133 272 125 273 134 273 133 273 133 274 134 274 131 274 134 275 127 275 137 275 134 276 137 276 136 276 127 277 135 277 137 277 131 278 134 278 136 278 137 279 135 279 138 279 136 280 137 280 138 280 146 281 143 281 103 281 103 282 94 282 146 282 146 283 94 283 147 283 148 284 93 284 150 284 148 285 150 285 149 285 141 286 149 286 150 286 140 287 145 287 146 287 145 288 92 288 142 288 145 289 142 289 144 289 144 290 142 290 89 290 143 291 146 291 144 291 89 292 143 292 144 292 144 293 146 293 145 293 146 294 147 294 140 294 140 295 147 295 148 295 145 296 140 296 148 296 145 297 148 297 149 297 79 298 151 298 37 298 37 299 151 299 152 299</p>
        </triangles>
      </mesh>
    </geometry>
  </library_geometries>
  <library_visual_scenes>
    <visual_scene id="Scene" name="Scene">
      <node id="node" name="node" type="NODE">
        <matrix sid="transform">-2.91217e-8 7.17386e-8 0.178748 0 0.178748 5.32711e-9 2.91217e-8 0 -5.3271e-9 0.178748 -7.17386e-8 0 0 0 0 1</matrix>
        <instance_geometry url="#shape0_000-mesh" name="node"/>
      </node>
    </visual_scene>
  </library_visual_scenes>
  <scene>
    <instance_visual_scene url="#Scene"/>
  </scene>
</COLLADA>